…
#### Question 3 - Calculate Mean and Median Number of Steps by Date


```r
mean_steps_by_date <-   data %>%
                        group_by(date) %>%
                        summarise(steps = mean(steps,na.rm=TRUE))

print(mean_steps_by_date)
```

```
## # A tibble: 61 x 2
##    date         steps
##    <date>       <dbl>
##  1 2012-10-01 NaN    
##  2 2012-10-02   0.438
##  3 2012-10-03  39.4  
##  4 2012-10-04  42.1  
##  5 2012-10-05  46.2  
##  6 2012-10-06  53.5  
##  7 2012-10-07  38.2  
##  8 2012-10-08 NaN    
##  9 2012-10-09  44.5  
## 10 2012-10-10  34.4  
## # … with 51 more rows
```
…
